{
  "$schema": "https://themost-framework.github.io/themost/models/2018/2/schema.json",
  "@id": "https://universis.io/schemas/CourseExamDocument",
  "name": "CourseExamDocument",
  "title": "Έγγραφο αποστολής εξέτασης ",
  "hidden": false,
  "sealed": false,
  "version": "0.2",
  "source": "CourseExamDocumentBase",
  "view": "CourseExamDocumentData",
  "fields": [
    {
      "name": "id",
      "title": "Κωδικός",
      "description": "Ο κωδικός του εγγράφου",
      "type": "Integer",
      "nullable": false,
      "primary": true
    },
    {
      "name": "courseExam",
      "title": "Εξέταση",
      "description": "Η εξέταση του μαθήματος",
      "type": "CourseExam",
      "nullable": false,
      "editable": false
    },
    {
      "name": "user",
      "title": "Χρήστης",
      "description": "Ο χρήστης που δημιούργησε το έγγραφο.",
      "type": "User",
      "editable": false
    },
    {
      "name": "documentSubject",
      "title": "Θέμα",
      "description": "Περιγραφή του εγγράφου",
      "type": "Note"
    },
    {
      "name": "originalDocument",
      "title": "Xml document",
      "description": "Το αρχικό xml έγγραφο που απέστειλε ο χρήστης.",
      "type": "Note"
    },
    {
      "name": "signedDocument",
      "title": "Xml signed document",
      "description": "Το υπογεγραμμένο xml έγγραφο που απέστειλε ο χρήστης.",
      "type": "Note"
    },
    {
      "name": "signatureBlock",
      "title": "Signature Block",
      "description": "Signature Block",
      "type": "Note"
    },
    {
      "name": "userCertificate",
      "title": "Πιστοποιητικό χρήστη",
      "description": "Το πιστοποιητικό του χρήστη.",
      "type": "Note"
    },
    {
      "name": "documentStatus",
      "title": "Κατάσταση",
      "description": "Η κατάσταση του εγγράφου",
      "type": "DocumentStatus"
    },
    {
      "name": "documentStatusReason",
      "title": "Αναλυτική περιγραφή",
      "description": "Μία αναλυτική περιγραφή της κατάστασης του εγγράφου.",
      "type": "Text"
    },
    {
      "name": "checkHashKey",
      "title": "Κλειδί ελέγχου",
      "description": "Κλειδί ελέγχου εγγράφου",
      "type": "Note"
    },
    {
      "name": "dateCreated",
      "title": "Ημερομηνία δημιουργίας",
      "description": "Ημερομηνία δημιουργίας",
      "type": "DateTime"
    },
    {
      "name": "dateModified",
      "title": "Ημερομηνία τροποποίησης",
      "description": "Ημερομηνία τροποποίησης",
      "type": "DateTime",
      "nullable": false,
      "value": "javascript:return new Date();",
      "calculation": "javascript:return this.now();"
    },
    {
      "@id": "http://schema.org/identifier",
      "name": "identifier",
      "title": "identifier",
      "description": "Η ιδιότητα αναγνωριστικού που αντιπροσωπεύει οποιοδήποτε είδος αναγνωριστικού",
      "type": "Guid",
      "value": "javascript:return this.newGuid();"
    }
  ],
  "privileges": [
    {
      "mask": 15,
      "type": "global"
    },
    {
      "mask": 15,
      "type": "global",
      "account": "Administrators"
    },
    {
      "mask": 5,
      "type": "self",
      "filter": "user eq me()",
      "account": "Instructors"
    },
    {
      "mask": 15,
      "type": "self",
      "account": "Registrar",
      "filter": "courseExam/course/department eq departments()"
    }
  ],
  "eventListeners": [
    {
      "type": "./listeners/course-exam-document-listener",
      "name": "Course exam listener"
    }
  ]
}
