{
  "$schema": "https://themost-framework.github.io/themost/models/2018/2/schema.json",
  "@id": "https://universis.io/entities/StudentCourseLocale",
  "name": "StudentCourseLocale",
  "description": "Contains a collection of extra fields required for StudentCourse.",
  "title": "StudentCourseLocale",
  "abstract": false,
  "contains": "StudentCourse",
  "hidden": true,
  "sealed": false,
  "version": "1.1",
  "fields": [
    {
      "@id": "https://themost.io/schemas/id",
      "name": "id",
      "title": "ID",
      "description": "The identifier of the item.",
      "type": "Counter",
      "primary": true,
      "nullable": false
    },
    {
      "@id": "https://themost.io/schemas/object",
      "name": "object",
      "title": "object",
      "description": "The parent item.",
      "type": "StudentCourse"
    },
    {
      "@id": "http://schema.org/inLanguage",
      "name": "inLanguage",
      "title": "inLanguage",
      "description": "The language of this item.",
      "type": "Text",
      "size": 5
    },
    {
      "name": "courseTitle",
      "title": "Course Title",
      "description": "The student course title",
      "type": "Text",
      "size": 150
    },
    {
      "name": "notes",
      "title": "Notes",
      "description": "Student course notes",
      "type": "Text",
      "nullable": true,
      "size": 100,
      "many": false
    }
  ],
  "constraints": [
    {
      "type": "unique",
      "fields": ["object", "inLanguage"]
    }
  ],
  "privileges": [
    {
      "mask": 15,
      "type": "global"
    },
    {
      "mask": 15,
      "type": "global",
      "account": "Administrators"
    },
    {
      "mask": 15,
      "type": "self",
      "account": "Registrar",
      "filter": "object/student/department eq departments() or object/course/department eq departments()"
    },
    {
      "mask": 1,
      "type": "self",
      "filter": "object/student eq student()",
      "account": "Students"
    }
  ]
}
