{
  "$schema": "https://themost-framework.github.io/themost/models/2018/2/schema.json",
  "@id": "https://themost.io/schemas/Article",
  "name": "Article",
  "title": "Article",
  "hidden": false,
  "sealed": false,
  "abstract": false,
  "version": "1.1",
  "inherits": "Thing",
  "fields": [
    {
      "@id": "https://themost.io/schemas/id",
      "name": "id",
      "title": "ID",
      "description": "The identifier of the item.",
      "type": "Counter",
      "primary": true,
      "nullable": false
    },
    {
      "name": "articleBody",
      "title": "Article Body",
      "description": "The actual body of the article.",
      "type": "Text"
    },
    {
      "name": "articleSection",
      "title": "Article Section",
      "description": "Articles may belong to one or more 'sections' in a magazine or newspaper, such as Sports, Lifestyle, etc.",
      "type": "Text"
    },
    {
      "name": "wordCount",
      "title": "Word Count",
      "description": "The number of words in the text of the Article.",
      "type": "Integer"
    },
    {
      "name": "workspace",
      "title": "Workspace",
      "description": "The workspace the article refers to.",
      "type": "Workspace"
    },
    {
      "name": "keywords",
      "title": "Keywords",
      "description": "The keywords/tags used to describe this content.",
      "type": "Text"
    }
  ],
  "privileges": [
    {
      "mask": 1,
      "type": "global",
      "account": "*"
    },
    {
      "mask": 15,
      "type": "global"
    }
  ]
}
