{
    "$schema": "https://themost-framework.github.io/themost/models/2018/2/schema.json",
    "@id": "https://themost.io/schemas/AttachmentConfiguration",
    "name": "AttachmentConfiguration",
    "title": "AttachmentConfiguration",
    "hidden": true,
    "sealed": false,
    "abstract": false,
    "implements": "Thing",
    "version": "1.0",
    "fields": [
        {
            "name": "id",
            "title": "Id",
            "type": "Counter",
            "nullable": false,
            "primary": true
        },
        {
            "name": "attachmentType",
            "title": "Alternate type",
            "description": "The attachment type",
            "type": "AttachmentType",
            "nullable": false
        },
        {
            "name": "target",
            "title": "Target",
            "description": "The model of the target object.",
            "type": "Text",
            "nullable": false
        },
        {
            "name": "object",
            "title": "object",
            "description": "The target object.",
            "type": "Guid"
        },
        {
            "name": "numberOfAttachments",
            "title": "Number of attachments",
            "description": "The allowed number of attachments.",
            "type": "Integer",
            "value": "javascript:return 1;"
        },
        {
            "name": "sortIndex",
            "title": "Sort index",
            "description": "Sort Index",
            "type": "Integer"
        },
        {
            "@id": "http://themost.io/schemas/assignees",
            "name": "assignees",
            "title": "Assignees",
            "description": "An assignee is a user or group of users responsible for doing the action.",
            "type": "Account"
        }
    ],
    "privileges": [
        {
            "mask": 15,
            "type": "global"
        },
        {
            "mask": 1,
            "type": "global",
            "account": "*"
        },
        {
            "mask": 3,
            "type": "global",
            "account": "Registrar"
        },
        {
            "mask": 15,
            "type": "global",
            "account": "Administrators"
        }
    ]
}
