{
    "$schema": "https://themost-framework.github.io/themost/models/2018/2/schema.json",
    "@id": "https://universis.io/schemas/AutoRegisterClassActionResult",
    "name": "AutoRegisterClassActionResult",
    "title": "Auto student course class registration action result",
    "hidden": false,
    "version": "1.0",
    "fields": [
        {
            "@id": "https://themost.io/schemas/id",
            "name": "id",
            "title": "id",
            "description": "The identifier of the item.",
            "type": "Counter",
            "primary": true
        },
        {
            "name": "action",
            "title": "The related action",
            "description": "The related action",
            "type": "AutoRegisterClassAction",
            "nullable": false,
            "editable": false
        },
        {
            "name": "student",
            "title": "The student",
            "description": "The student",
            "type": "Student",
            "nullable": false,
            "editable": false
        },
        {
            "name": "forRegister",
            "title": "Total classes for register",
            "description": "Total classes for register",
            "type": "Number"
        },
        {
            "name": "registered",
            "title": "Total successfully registered classes",
            "description": "Total successfully registered classes",
            "type": "Number"
        },
        {
            "name": "failed",
            "title": "Total failed registered classes",
            "description": "Total failed registered classes",
            "type": "Number"
        },
        {
            "name": "alreadyRegistered",
            "title": "Total already registered classes",
            "description": "Total already registered classes",
            "type": "Number"
        },
        {
            "name": "result",
            "title": "The registration result (SUCC/PSUCC/EFAIL/FAIL)",
            "description": "The registration result (SUCC/PSUCC/EFAIL/FAIL)",
            "type": "Text",
            "size": 10
        },
        {
            "name": "message",
            "title": "message",
            "description": "The message (e.g. results per class)",
            "type": "Note"
        }
    ],
    "privileges": [
        {
            "mask": 15,
            "type": "global",
            "account": "Administrators"
        },
        {
            "mask": 15,
            "type": "global"
        },
        {
            "mask": 15,
            "type": "self",
            "account": "Registrar",
            "filter": "student/department eq departments()"
        }
    ]
}
