{
  "$schema": "https://themost-framework.github.io/themost/models/2018/2/schema.json",
  "@id": "https://universis.io/schemas/CourseExamTestTypes",
  "name": "CourseExamTestTypes",
  "title": "Τύποι εξέτασης μαθήματος",
  "source": "CourseExamTestTypes",
  "view": "CourseExamTestTypes",
  "version": "1.0",
  "fields": [
    {
      "name": "id",
      "primary": true,
      "type": "Counter"
    },
    {
      "name": "courseExam",
      "nullable": false,
      "type": "CourseExam"
    },
    {
      "name": "testType",
      "nullable": false,
      "type": "TestType"
    }
  ],
  "constraints": [
    {
      "fields": [
        "courseExam",
        "testType"
      ],
      "type": "unique"
    }
  ],
  "privileges": [
    {
      "mask": 15,
      "type": "global"
    },
    {
      "mask": 1,
      "type": "global",
      "account": "*"
    },
    {
      "mask": 15,
      "type": "global",
      "account": "Administrators"
    },
    {
      "mask": 1,
      "type": "global",
      "account": "*"
    },
    {
      "mask": 15,
      "type": "self",
      "filter": "courseExam/instructors/instructor eq instructor()",
      "account": "Instructors"
    },
    {
      "mask": 15,
      "type": "self",
      "account": "Registrar",
      "filter": "courseExam/course/department eq departments()"
    }
  ]
}

