{
  "$schema": "https://themost-framework.github.io/themost/models/2018/2/schema.json",
  "@id": "https://universis.io/schemas/CourseExamStatus",
  "name": "CourseExamStatus",
  "title": "Course exam status",
  "description": "Καταστάσεις εξέτασης μαθήματος",
  "hidden": false,
  "sealed": false,
  "abstract": false,
  "caching": "always",
  "implements": "Enumeration",
  "category": "lookup",
  "version": "1.0",
  "fields": [
    {
      "name": "id",
      "title": "Id",
      "type": "Counter",
      "nullable": false,
      "primary": true
    }
  ],
  "privileges": [
    {
      "mask": 1,
      "type": "global",
      "account": "*"
    },
    {
      "mask": 15,
      "type": "global"
    },
    {
      "mask": 15,
      "type": "global",
      "account": "Administrators"
    }
  ],
  "constraints": [
    {
      "type": "unique",
      "description": "Alternate name must be unique across different records",
      "fields": [
        "alternateName"
      ]
    },
    {
      "type": "unique",
      "description": "Name must be unique across different records",
      "fields": [
        "name"
      ]
    }
  ],
  "seed": [
    {
      "alternateName": "open",
      "name": "Ανοιχτή",
      "identifier": 1,
      "description": "Ανοιχτή"
    },
    {
      "alternateName": "closed",
      "name": "Κλειστή",
      "identifier": 2,
      "description": "Κλειστή"
    },
    {
      "alternateName": "inprogress",
      "name": "Σε επεξεργασία",
      "identifier": 11,
      "description": "Σε επεξεργασία από το διδάσκοντα"
    },
    {
      "alternateName": "completed",
      "name": "Ολοκληρωμένη",
      "identifier": 12,
      "description": "Ολοκληρωμένη από το διδάσκοντα"
    }
  ],
  "eventListeners": [
    {
      "name": "Lookup Cache Listener",
      "type": "./listeners/lookup-cache-listener.js"
    }
  ]
}