{
  "$schema": "https://themost-framework.github.io/themost/models/2018/2/schema.json",
  "@id": "https://universis.io/schemas/CourseArea",
  "name": "CourseArea",
  "title": "Γνωστικά αντικείμενα μαθημάτων ανά τμήμα",
  "hidden": false,
  "sealed": false,
  "version": "0.1",
  "source": "CourseAreaBase",
  "view": "CourseAreaBase",
  "fields": [
    {
      "name": "id",
      "title": "Κωδικός",
      "description": "Ο μοναδικός κωδικός του γνωστικού αντικειμένου",
      "type": "Integer",
      "nullable": false,
      "size": 4,
      "primary": true,
      "value": "javascript:return this.newid();",
      "readonly": true
    },
    {
      "name": "name",
      "title": "Ονομασία",
      "description": "Η ονομασία του γνωστικού αντικειμένου",
      "type": "Text",
      "nullable": false,
      "size": 255
    },
    {
      "name": "abbreviation",
      "title": "Συντομογραφία",
      "description": "Η συντομογραφία του γνωστικού αντικειμένου",
      "type": "Text",
      "size": 255
    },
    {
      "name": "department",
      "title": "Τμήμα",
      "description": "Κωδικός τμήματος",
      "type": "Department",
      "nullable": false,
      "editable": false
    }
  ],
  "privileges": [
    {
      "mask": 1,
      "type": "global",
      "account": "*"
    },
    {
      "mask": 15,
      "type": "global"
    },
    {
      "mask": 15,
      "type": "global",
      "account": "Administrators"
    },
    {
      "mask": 15,
      "type": "self",
      "account": "Registrar",
      "filter": "department eq departments()"
    }
  ],
  "eventListeners": [
    {
      "name": "Lookup Cache Listener",
      "type": "./listeners/lookup-cache-listener.js"
    },
    {
      "type": "./listeners/remove-mappings-listener"
    }
  ]
}
