{
  "$schema": "https://themost-framework.github.io/themost/models/2018/2/schema.json",
  "@id": "https://universis.io/schemas/CourseTypeRuleEx",
  "name": "CourseTypeRuleEx",
  "type": "memory",
  "title": "Course type rules expanded",
  "hidden": true,
  "sealed": false,
  "version": "0.1",
  "fields": [
    {
      "name": "id",
      "title": "Id",
      "description": "Id",
      "type": "Integer",
      "nullable": false,
      "primary": true
    },
    {
      "name": "target",
      "title": "The target object",
      "description": "The target object",
      "type": "Text",
      "nullable": false
    },
    {
      "name": "targetType",
      "title": "Target type",
      "description": "The type of the target object",
      "type": "Text",
      "nullable": false
    },
    {
      "name": "refersTo",
      "title": "Refers to model",
      "description": "Refers to model",
      "type": "Text",
      "nullable": false
    },
    {
      "name": "additionalType",
      "title": "The rule additional type",
      "description": "The rule additional type",
      "type": "Text",
      "nullable": false
    },
    {
      "name": "value1",
      "title": "Value 1",
      "description": "Value 1",
      "type": "Text"
    },
    {
      "name": "value2",
      "title": "Value 2",
      "description": "Value 2",
      "type": "Text"
    },
    {
      "name": "checkValues",
      "property": "courseTypes",
      "type": "CourseType",
      "many": true,
      "mapping": {
        "parentModel": "CourseTypeRuleEx",
        "parentField": "id",
        "childModel": "CourseType",
        "childField": "id",
        "associationType": "junction"
      }
    },
    {
      "name": "ruleOperator",
      "title": "Rule operator",
      "description": "The rule operator",
      "type": "RuleOperator",
      "mapping": {
        "parentModel": "RuleOperator",
        "parentField": "identifier",
        "childModel": "CourseTypeRuleEx",
        "childField": "id",
        "associationType": "association"
      }
    },
    {
      "name": "value6",
      "property": "measureType",
      "title": "Measure type",
      "description": "The measure type",
      "type": "RuleMeasureType",
      "mapping": {
        "parentModel": "RuleMeasureType",
        "parentField": "identifier",
        "childModel": "CourseTypeRuleEx",
        "childField": "id",
        "associationType": "association"
      }
    },
    {
      "name": "value7",
      "property": "excludeCourses",
      "type": "Course",
      "many": true,
      "mapping": {
        "parentModel": "CourseTypeRuleEx",
        "parentField": "id",
        "childModel": "Course",
        "childField": "id",
        "associationType": "junction"
      }
    },
    {
      "name": "value9",
      "property": "courseCategories",
      "type": "CourseCategory",
      "many": true,
      "mapping": {
        "parentModel": "CourseTypeRuleEx",
        "parentField": "id",
        "childModel": "CourseCategory",
        "childField": "id",
        "associationType": "junction"
      }
    },
    {
      "name": "value10",
      "property": "courseSectors",
      "type": "CourseSector",
      "many": true,
      "mapping": {
        "parentModel": "CourseTypeRuleEx",
        "parentField": "id",
        "childModel": "CourseSector",
        "childField": "id",
        "associationType": "junction"
      }
    },
    {
      "name": "value11",
      "property": "courseAreas",
      "type": "CourseArea",
      "many": true,
      "mapping": {
        "parentModel": "CourseTypeRuleEx",
        "parentField": "id",
        "childModel": "CourseArea",
        "childField": "id",
        "associationType": "junction"
      }
    },
    {
      "name": "ruleExpression",
      "title": "The rule expression",
      "description": "The rule expression",
      "type": "Text"
    },
    {
      "name": "programSpecialty",
      "title": "The rule for specific program specialty",
      "description": "The rule program specialty",
      "type": "Integer"
    }
  ],
  "privileges": [
    {
      "mask": 1,
      "type": "global",
      "account": "*"
    },
    {
      "mask": 15,
      "type": "global"
    }
  ]
}
