{
  "$schema": "https://themost-framework.github.io/themost/models/2018/2/schema.json",
  "@id": "https://themost.io/schemas/CourseExamParticipateAction",
  "name": "CourseExamParticipateAction",
  "description": "The act of requesting a participation to a specific course exam",
  "title": "CourseExamParticipateAction",
  "abstract": false,
  "sealed": false,
  "implements": "RequestAction",
  "version": "1.2",
  "fields": [
    {
      "@id": "https://themost.io/schemas/id",
      "name": "id",
      "title": "ID",
      "description": "The identifier of the item.",
      "type": "Counter",
      "primary": true,
      "nullable": false
    },
    {
      "name": "student",
      "title": "Student",
      "description": "Student",
      "type": "Student",
      "nullable": false,
      "value": "javascript:return this.student();",
      "editable": false
    },
    {
      "@id": "http://schema.org/additionalType",
      "name": "additionalType",
      "readonly": true,
      "nullable": false,
      "value": "javascript:return this.model.name;",
      "type": "Text"
    },
    {
      "@id": "http://schema.org/initiator",
      "name": "initiator",
      "type": "ExamPeriodParticipateAction"
    },
    {
      "@id": "http://schema.org/actionStatus",
      "name": "actionStatus",
      "title": "actionStatus",
      "description": "Indicates the current disposition of the Action.",
      "type": "ActionStatusType",
      "value": "javascript:return { alternateName:'CompletedActionStatus' };"
    },
    {
      "name": "courseExam",
      "title": "Course exam",
      "description": "Course exam",
      "type": "CourseExam",
      "nullable": false
    },
    {
      "name": "agree",
      "title": "Agreement",
      "description": "Student agreement for participating to exam period",
      "type": "Boolean",
      "nullable": false
    },
    {
      "name": "testType",
      "type": "TestType"
    }
  ],
  "constraints": [
    {
      "type": "unique",
      "description": "A student exam participation must be unique for a course exam.",
      "fields": [
        "student",
        "courseExam"
      ]
    }
  ],
  "views": [
    {
      "name": "CourseExamInstructorView",
      "fields": [
        {
          "name": "id"
        },
        {
          "name": "student",
          "expandable": false,
          "mapping": {
            "options": {
              "$select": "StudentSummary"
            }
          }
        },
        {
          "name": "courseExam"
        },
        {
          "name": "dateCreated"
        },
        {
          "name": "agree"
        },
        {
          "name": "testType"
        }
      ]
    },
    {
      "name": "export",
      "description": "This view contains the fields that is going to used for exporting courseExam participations.",
      "order": "student/person/familyName, student/person/givenName",
      "fields": [
        {
          "name": "courseExam",
          "title": "Examination Code"
        },
        {
          "name": "student",
          "expandable": false,
          "title": "Student",
          "mapping": {
            "options": {
              "$select": "StudentSummary"
            }
          }
        },
        {
          "name": "student/studentIdentifier",
          "property": "studentIdentifier",
          "title": "Student Code"
        },
        {
          "name": "student/semester",
          "property": "studentSemester",
          "title": "Semester"
        },
        {
          "name": "student/person/familyName",
          "property": "familyName",
          "title": "Family Name"
        },
        {
          "name": "student/person/givenName",
          "property": "givenName",
          "title": "Given Name"
        },
        {
          "name": "student/person/fatherName",
          "property": "fatherName",
          "title": "Father Name"
        },
        {
          "name": "student/studentStatus/name",
          "property": "studentStatus",
          "title": "Status"
        },
        {
          "name": "student/inscriptionYear",
          "property": "inscriptionYear",
          "title": "Inscription Year"
        },
        {
          "name": "agree",
          "property": "agree",
          "title": "Participate"
        },
        {
          "name": "dateCreated",
          "property": "dateCreated",
          "title": "Date"
        },
        {
          "name": "testType/name",
          "property": "testType",
          "title": "TestType"
        }
      ]
    }
  ],
  "privileges": [
    {
      "mask": 15,
      "type": "global"
    },
    {
      "mask": 15,
      "type": "global",
      "account": "Administrators"
    },
    {
      "mask": 1,
      "type": "self",
      "filter": "owner eq me()"
    },
    {
      "mask": 2,
      "type": "self",
      "filter": "owner eq me()"
    },
    {
      "mask": 15,
      "type": "self",
      "account": "Registrar",
      "filter": "student/department eq departments()"
    },
    {
      "mask": 1,
      "type": "self",
      "filter": "courseExam/instructors/instructor eq instructor()",
      "account": "Instructors"
    }
  ]
}
