{
  "$schema": "https://themost-framework.github.io/themost/models/2018/2/schema.json",
  "@id": "https://universis.io/schemas/DepartmentReportVariableValue",
  "name": "DepartmentReportVariableSnapshot",
  "title": "DepartmentReportVariableSnapshot",
  "version": "1.0",
  "implements": "ReportVariableValue",
  "fields": [
    {
      "name": "department",
      "title": "Department",
      "type": "DepartmentSnapshot",
      "nullable": false,
      "editable": false,
      "mapping": {
        "cascade": "delete"
      }
    }
  ],
  "constraints": [
    {
      "type": "unique",
      "fields": [
        "reportVariable",
        "DepartmentSnapshot",
        "inLanguage"
      ]
    }
  ],
  "privileges": [
    {
      "mask": 15,
      "type": "self",
      "account": "Registrar",
      "filter": "department/department eq departments()"
    },
    {
      "mask": 15,
      "type": "global"
    },
    {
      "mask": 15,
      "type": "global",
      "account": "Administrators"
    }
  ]
}
