{
  "$schema": "https://themost-framework.github.io/themost/models/2018/2/schema.json",
  "@id": "https://universis.io/schemas/DepartmentSnapshot",
  "name": "DepartmentSnapshot",
  "title": "DepartmentSnapshots",
  "version": "1.3",
  "implements": "Department",
  "fields": [
    {
      "name": "id",
      "@id": "https://themost.io/schemas/id",
      "title": "ID",
      "description": "The identifier of an item.",
      "type": "Guid",
      "nullable": false,
      "primary": true,
      "value": "javascript:return this.newGuid();"
    },
    {
      "@id": "http://schema.org/description",
      "name": "description",
      "title": "description",
      "description": "A description of the item.",
      "type": "Text",
      "nullable": false
    },
    {
      "name": "department",
      "title": "Department",
      "type": "Department",
      "nullable": false,
      "editable": false
    },
    {
      "@id": "http://schema.org/name",
      "name": "instituteName",
      "title": "Institute name",
      "description": "The institute name",
      "type": "Text",
      "size": 150,
      "nullable": false
    },
    {
      "@id": "http://schema.org/alternateName",
      "name": "instituteAlternateName",
      "title": "Institute alternate Name",
      "description": "An alias for the institute.",
      "type": "Text",
      "size": 30
    },
    {
      "@id": "https://universis.io/instituteType",
      "name": "instituteType",
      "title": "Institute Type",
      "description": "A type for an education institute e.g. university, technological institute etc.",
      "type": "InstituteType"
    },
    {
      "name": "studyLevel",
      "title": "Επίπεδο σπουδών",
      "description": "Το επίπεδο σπουδών των προγραμμάτων σπουδών που προσφέρονται από το τμήμα. (πχ προπτυχιακό, μεταπτυχιακό, διδακτορικό).",
      "type": "StudyLevel",
      "expandable": true
    },
    {
      "@id": "https://universis.io/properties/departmentConfiguration",
      "name": "departmentConfiguration",
      "title": "departmentConfiguration",
      "type": "Integer"
    },
    {
      "name": "reportVariables",
      "type": "DepartmentReportVariableSnapshot",
      "many": true,
      "mapping": {
        "associationType": "association",
        "cascade": "delete",
        "parentModel": "DepartmentSnapshot",
        "parentField": "id",
        "childModel": "DepartmentReportVariableSnapshot",
        "childField": "department"
      }
    },
    {
      "name": "locales",
      "type": "DepartmentSnapshotLocale",
      "mapping": {
        "associationType": "association",
        "cascade": "delete",
        "parentModel": "DepartmentSnapshot",
        "parentField": "id",
        "childModel": "DepartmentSnapshotLocale",
        "childField": "object"
      }
    },
    {
      "name": "locale",
      "type": "DepartmentSnapshotLocale",
      "readonly": true,
      "editable": false,
      "many": true,
      "expandable": true,
      "multiplicity": "ZeroOrOne",
      "mapping": {
        "associationType": "association",
        "cascade": "delete",
        "parentModel": "DepartmentSnapshot",
        "parentField": "id",
        "childModel": "DepartmentSnapshotLocale",
        "childField": "object",
        "options": {
          "$filter": "inLanguage eq lang()",
          "$first": true
        }
      }
    }
  ],
  "eventListeners": [
    {
      "type": "./listeners/department-snapshot-listener"
    },
    {
      "type": "./listeners/OnDepartmentSnapshotExecute"
    },
    {
      "type": "./listeners/data-localization"
    }
  ],
  "privileges": [
    {
      "mask": 15,
      "type": "self",
      "account": "Registrar",
      "filter": "department eq departments()"
    },
    {
      "mask": 15,
      "type": "global"
    },
    {
      "mask": 15,
      "type": "global",
      "account": "Administrators"
    }
  ]
}
