{
  "$schema": "https://themost-framework.github.io/themost/models/2018/2/schema.json",
  "@id": "https://universis.io/schemas/DocumentStatus",
  "name": "DocumentStatus",
  "title": "Κατάσταση απεσταλμένων εγγράφων (βαθμολογιών και δηλώσεων)",
  "hidden": false,
  "sealed": false,
  "abstract": false,
  "caching": "always",
  "implements": "Enumeration",
  "category": "lookup",
  "version": "1.0",
  "fields": [
    {
      "name": "id",
      "title": "Id",
      "type": "Counter",
      "nullable": false,
      "primary": true
    }
  ],
  "privileges": [
    {
      "mask": 1,
      "type": "global",
      "account": "*"
    },
    {
      "mask": 15,
      "type": "global"
    }
  ],
  "constraints": [
    {
      "type": "unique",
      "description": "Alternate name must be unique across different records",
      "fields": [
        "alternateName"
      ]
    },
    {
      "type": "unique",
      "description": "Name must be unique across different records",
      "fields": [
        "name"
      ]
    }
  ],
  "seed": [
    {
      "alternateName": "pending",
      "name": "Σε εκκρεμότητα",
      "identifier": 1
    },
    {
      "alternateName": "closed",
      "name": "Κλειστό",
      "identifier": 2
    },
    {
      "alternateName": "cancelled",
      "name": "Ακυρώθηκε",
      "identifier": 3
    }
  ],
  "eventListeners": [
    {
      "name": "Lookup Cache Listener",
      "type": "./listeners/lookup-cache-listener.js"
    }
  ]
}
