{
  "$schema": "https://themost-framework.github.io/themost/models/2018/2/schema.json",
  "@id": "https://universis.io/schemas/EducationEventPresence",
  "name": "EducationEventPresence",
  "description": "A model to track presence count of a student in an education event.",
  "title": "EducationEventPresence",
  "inherits": "EducationEventAttendance",
  "abstract": false,
  "sealed": false,
  "version": "0.1",
  "fields": [
  ],
  "privileges": [
  ]
}
