{
  "$schema": "https://themost-framework.github.io/themost/models/2018/2/schema.json",
  "@id": "https://universis.io/schemas/Group",
  "name": "Group",
  "title": "User Group",
  "inherits": "Account",
  "hidden": false,
  "sealed": false,
  "abstract": false,
  "version": "1.1",
  "fields": [
    {
      "name": "id",
      "title": "Id",
      "description": "The identifier of the item.",
      "type": "Integer",
      "nullable": false,
      "primary": true
    },
    {
      "name": "members",
      "title": "Group Members",
      "description": "Contains the collection of group members (users or groups).",
      "type": "Account",
      "many": true
    },
    {
      "name": "tags",
      "title": "Group Tags",
      "description": "Contains a collection of tags for this object.",
      "type": "Text",
      "many": true
    },
    {
      "name": "additionalType",
      "value": "javascript:return 'Group';"
    },
    {
      "name": "accountType",
      "value": "javascript:return 1;"
    },
    {
      "name": "clientApplication",
      "title": "Client Application",
      "description": "A string which represents the client application associated with this group.",
      "type": "Text"
    },
    {
      "name": "scopes",
      "type": "Text",
      "many": true,
      "mapping": {
        "associationType": "junction",
        "associationAdapter": "AssignedClientScopes",
        "associationObjectField": "group",
        "associationValueField": "scope"
      }
    }
  ],
  "privileges": [
    {
      "mask": 1,
      "type": "global",
      "account": "*"
    },
    {
      "mask": 15,
      "type": "global"
    },
    {
      "mask": 2,
      "type": "global",
      "account": "Administrators"
    }
  ],
  "seed": [
    {
      "name": "Administrators",
      "alternateName": "Administrators",
      "scopes": [
        "registrar",
        "students",
        "teachers"
      ]
    },
    {
      "name": "Users",
      "alternateName": "Users"
    },
    {
      "name": "Students",
      "alternateName": "Students",
      "scopes": [
        "students"
      ]
    },
    {
      "name": "Instructors",
      "alternateName": "Instructors",
      "scopes": [
        "teachers"
      ]
    },
    {
      "name": "Registrar",
      "alternateName": "Registrar",
      "scopes": [
        "registrar"
      ]
    }
  ],
  "eventListeners": [
  ]
}
