{
    "$schema": "https://themost-framework.github.io/themost/models/2018/2/schema.json",
    "@id": "https://universis.io/entities/InstructorPersonExtension",
    "name": "InstructorPersonExtension",
    "description": "Instructor Person Extensions",
    "title": "InstructorPersonExtension",
    "abstract": false,
    "sealed": false,
    "hidden": true,
    "version": "1.5",
    "fields": [
        {
            "@id": "https://themost.io/schemas/id",
            "name": "id",
            "title": "id",
            "description": "The identifier of the item.",
            "type": "Counter",
            "primary": true
        },
        {
            "name": "instructor",
            "type": "Instructor",
            "nullable": false
        },
        {
            "name": "SSN",
            "type": "Text",
            "nullable": true,
            "size": 30
        },
        {
            "name": "identityCard",
            "type": "Text",
            "nullable": true,
            "size": 30
        },
        {
            "name": "identityDate",
            "type": "DateTime",
            "nullable": true
        },
        {
            "name": "identityAuthority",
            "type": "Text",
            "nullable": true,
            "size": 100
        },
        {
            "name": "identityType",
            "type": "IdentityType",
            "nullable": true,
            "mapping": {
                "parentModel": "IdentityType",
                "childModel": "InstructorPersonExtension",
                "parentField": "identifier",
                "childField": "identityType",
                "associationType": "association"
            }
        },
        {
            "name": "identityCountry",
            "type": "Country",
            "nullable": true
        },
        {
            "name": "birthDate",
            "type": "Date",
            "nullable": true
        },
        {
            "name": "alternateEmail",
            "type": "Text",
            "nullable": true,
            "size": 100
        },
        {
            "name": "notes",
            "type": "Text",
            "nullable": true,
            "size": 255,
            "many": false
        },
        {
            "name": "vatNumber",
            "type": "Text",
            "nullable": true,
            "size": 30
        },
        {
            "name": "vatOffice",
            "type": "Text",
            "nullable": true,
            "size": 100
        }
    ],
    "constraints": [
        {
            "type": "unique",
            "fields": [
                "instructor"
            ]
        }
    ],
    "privileges": [
        {
            "mask": 31,
            "type": "global"
        },
        {
            "mask": 1,
            "type": "self",
            "account": "Instructors",
            "filter": "instructor eq instructor()"
        },
        {
            "mask": 1,
            "type": "global",
            "account": "Registrar"
        },
        {
            "mask": 14,
            "type": "self",
            "account": "Registrar",
            "filter": "instructor/department eq departments()"
        },
        {
            "mask": 15,
            "type": "global",
            "account": "Administrators"
        }
    ]
}