{
    "$schema": "https://themost-framework.github.io/themost/models/2018/2/schema.json",
    "@id": "http://schema.org/MediaType",
    "name": "MediaType",
    "title": "MediaType",
    "abstract": false,
    "sealed": false,
    "implements": "Enumeration",
    "version": "1.0",
    "fields": [
        {
            "@id": "http://schema.org/additionalType",
            "name": "additionalType",
            "type": "Text",
            "readonly": true,
            "nullable": false,
            "value": "javascript:return this.model.name;"
        },
        {
            "@id": "http://schema.org/alternateName",
            "name": "alternateName",
            "type": "Text",
            "nullable": false
        },
        {
            "name": "mimeType",
            "type": "Text",
            "nullable": false,
            "size": 100
        },
        {
            "@id": "http://schema.org/name",
            "name": "name",
            "type": "Text",
            "nullable": false
        },
        {
            "name": "extension",
            "type": "Text",
            "nullable": false,
            "size": 20
        }
    ],
    "privileges": [
        {
            "mask": 15,
            "type": "global"
        },
        {
            "mask": 1,
            "type": "global",
            "account": "*"
        },
        {
            "mask": 15,
            "type": "global",
            "account": "Administrators"
        }
    ],
    "constraints": [
        {
            "type": "unique",
            "fields": [
                "alternateName"
            ]
        }
    ],
    "seed": [
        {
            "name": "PDF",
            "alternateName": "pdf",
            "mimeType": "application/pdf",
            "description": "Adobe Portable Document Format",
            "extension": ".pdf"
        },
        {
            "name": "Excel",
            "alternateName": "excel",
            "mimeType": "application/vnd.openxmlformats-officedocument.spreadsheetml.sheet",
            "description": "Microsoft Excel (OpenXML)",
            "extension": ".xlsx"
        },
        {
            "name": "CSV",
            "alternateName": "csv",
            "mimeType": "text/csv",
            "description": "Comma-separated values (CSV)",
            "extension": ".csv"
        },
        {
            "name": "Word",
            "alternateName": "word",
            "mimeType": "application/vnd.openxmlformats-officedocument.wordprocessingml.document",
            "description": "Microsoft Word (OpenXML)",
            "extension": ".docx"
        }
    ]
}
