{
    "$schema": "https://themost-framework.github.io/themost/models/2018/2/schema.json",
    "@id": "https://universis.io/schemas/ReportTemplate",
    "name": "ReportTemplate",
    "title": "Report Templates",
    "hidden": false,
    "sealed": false,
    "abstract": false,
    "version": "1.6",
    "implements": "Enumeration",
    "fields": [
        {
            "@id": "https://themost.io/schemas/id",
            "name": "id",
            "title": "id",
            "description": "The identifier of the item.",
            "type": "Counter",
            "primary": true
        },
        {
            "name": "additionalType",
            "title": "Additional Type",
            "description": "An additional type for the item, typically used for adding more specific types from external vocabularies in microdata syntax. This is a relationship between something and a class that the thing is in. In RDFa syntax, it is better to use the native RDFa syntax - the 'typeof' attribute - for multiple types. Schema.org tools may have only weaker understanding of extra types, in particular those defined externally.",
            "type": "Text",
            "value": "javascript:return this.model.name;"
        },
        {
            "@id": "https://themost.io/signReport",
            "name": "signReport",
            "title": "Sign Report",
            "description": "A boolean which represents whether the report should be digitally signed or not.",
            "type": "Boolean"
        },
        {
            "@id": "https://themost.io/signReason",
            "name": "signReason",
            "title": "Sign Reason",
            "description": "A string which contains digital sign reason attribute.",
            "type": "Text"
        },
        {
            "@id": "https://themost.io/signLocation",
            "name": "signLocation",
            "title": "Sign Location",
            "description": "A string which contains digital sign location attribute.",
            "type": "Text"
        },
        {
            "@id": "https://themost.io/category",
            "name": "reportCategory",
            "title": "Report category",
            "description": "The category the report refers to",
            "type": "ReportCategory"
        },
        {
            "@id": "https://schema.org/inLanguage",
            "name": "inLanguage",
            "title": "Language",
            "description": "The language of the content in a report template",
            "type": "Text"
        },
        {
            "@id": "https://themost.io/signReport",
            "name": "useDocumentNumber",
            "title": "Use document number",
            "description": "A boolean which indicates whether a report should have a document number that identifies uniquely a report.",
            "type": "Boolean"
        },
        {
            "name": "exportFormats",
            "title": "Available Export Formats",
            "type": "MediaType",
            "many": true,
            "mapping": {
                "parentModel": "ReportTemplate",
                "childModel": "MediaType",
                "parentField": "id",
                "childField": "id",
                "cascade": "delete",
                "associationType": "junction",
                "privileges": [
                    {
                        "mask": 15,
                        "type": "global"
                    },
                    {
                        "mask": 1,
                        "type": "global",
                        "account": "*"
                    },
                    {
                        "mask": 15,
                        "type": "global",
                        "account": "Administrators"
                    }
                ]
            }
        }
    ],
    "privileges": [
        {
            "mask": 15,
            "type": "global"
        },
        {
            "mask": 16,
            "property": "reportCategory",
            "type": "global"
        },
        {
            "mask": 15,
            "type": "global",
            "account": "Administrators"
        },
        {
            "mask": 15,
            "type": "global",
            "account": "Registrar"
        },
        {
            "mask": 15,
            "type": "item"
        }
    ],
    "eventListeners": [
        {
            "type": "./listeners/report-template-before-save-listener"
        }
    ]
}
