{
  "$schema": "https://themost-framework.github.io/themost/models/2018/2/schema.json",
  "@id": "https://themost.io/schemas/RequestDocumentAction",
  "name": "RequestDocumentAction",
  "description": "The act of requesting an academic document",
  "title": "RequestDocumentAction",
  "abstract": false,
  "sealed": false,
  "inherits": "StudentRequestAction",
  "version": "1.7",
  "fields": [
    {
      "@id": "http://schema.org/object",
      "name": "object",
      "title": "object",
      "nullable": false,
      "type": "DocumentConfiguration"
    },
    {
      "@id": "http://schema.org/additionalType",
      "name": "additionalType",
      "readonly": true,
      "nullable": false,
      "value": "javascript:return this.model.name;"
    },
    {
      "@id": "http://schema.org/actionStatus",
      "name": "actionStatus",
      "title": "actionStatus",
      "description": "Indicates the current disposition of the Action.",
      "type": "ActionStatusType",
      "value": "javascript:return { alternateName:'ActiveActionStatus' };"
    },
    {
      "@id": "https://themost.io/schemas/documentCopies",
      "name": "documentCopies",
      "type": "Integer",
      "many": false,
      "nullable": false,
      "value": "javascript:return 1;"
    },
    {
      "@id": "http://schema.org/result",
      "name": "result",
      "title": "result",
      "description": "The result produced in the action.",
      "type": "DocumentNumberSeriesItem"
    },
    {
      "@id": "http://schema.org/initiator",
      "name": "initiator",
      "title": "Initial action",
      "description": "Indicates whether an action has been derived from another action made by a user.",
      "type": "Action"
    }
  ],
  "eventListeners": [
    {
      "type": "@themost/data/previous-state-listener"
    },
    {
      "type": "./listeners/validate-request-document-action-listener"
    },
    {
      "type": "./listeners/auto-complete-request-document-action-listener"
    },
    {
      "type": "./listeners/after-complete-request-document-action-listener"
    }
  ],
  "privileges": [
    {
      "mask": 15,
      "type": "global"
    },
    {
      "mask": 15,
      "type": "global",
      "account": "Administrators"
    },
    {
      "mask": 1,
      "type": "self",
      "filter": "owner eq me() or student eq student()",
      "account": "Students"
    },
    {
      "mask": 2,
      "type": "self",
      "filter": "owner eq me() and student eq student()",
      "account": "Students"
    },
    {
      "mask": 15,
      "type": "self",
      "account": "Registrar",
      "filter": "student/department eq departments()"
    }
  ]
}
