{
  "$schema": "https://themost-framework.github.io/themost/models/2018/2/schema.json",
  "@id": "https://themost.io/RequestConfiguration",
  "name": "RequestConfiguration",
  "description": "A request that may be requested by a user (student or employee).",
  "title": "RequestConfiguration",
  "abstract": false,
  "sealed": false,
  "implements": "Enumeration",
  "version": "1.1",
  "fields": [
    {
      "@id": "http://schema.org/additionalType",
      "name": "additionalType",
      "type": "Text",
      "readonly": true,
      "nullable": false,
      "value": "javascript:return this.model.name;"
    },
    {
      "@id": "http://schema.org/alternateName",
      "name": "alternateName",
      "type": "Text",
      "nullable": false
    },
    {
      "@id": "http://schema.org/inLanguage",
      "name": "inLanguage",
      "title": "inLanguage",
      "type": "Text",
      "size": 2
    },
    {
      "name": "maximumActive",
      "title": "Maximum active requests",
      "description": "Maximum active requests per student",
      "type": "Number",
      "value": "javascript:return 1;"
    },
    {
      "name": "maximumAllowed",
      "title": "Maximum allowed completed requests",
      "description": "Maximum allowed completed requests",
      "type": "Number",
      "value": "javascript:return 0;"
    },
    {
      "name": "autoCompleted",
      "title": "Auto completed",
      "description": "Indicates whether the request is auto completed",
      "type": "Boolean",
      "value": "javascript:return false;"
    },
    {
      "@id": "http://schema.org/category",
      "name": "category",
      "title": "category",
      "type": "RequestCategory"
    },
    {
      "@id": "http://schema.org/previewUrl",
      "name": "previewUrl",
      "title": "previewUrl",
      "type": "Text"
    }
  ],
  "privileges": [
    {
      "mask": 1,
      "type": "global",
      "account": "*"
    },
    {
      "mask": 15,
      "type": "global"
    },
    {
      "mask": 15,
      "type": "global",
      "account": "Administrators"
    }
  ],
  "constraints": [
    {
      "type": "unique",
      "fields": [
        "alternateName"
      ]
    }
  ]
}
