{
  "$schema": "https://themost-framework.github.io/themost/models/2018/2/schema.json",
  "@id": "https://universis.io/schemas/RuleCheckType",
  "name": "RuleCheckType",
  "title": "Rule check type",
  "description": "Τύποι ελέγχου κανόνων δηλωμένου μαθήματος",
  "hidden": false,
  "sealed": false,
  "abstract": false,
  "caching": "always",
  "implements": "Enumeration",
  "category": "lookup",
  "version": "1.0",
  "fields": [
    {
      "name": "id",
      "title": "Id",
      "type": "Counter",
      "nullable": false,
      "primary": true
    }
  ],
  "privileges": [
    {
      "mask": 1,
      "type": "global",
      "account": "*"
    },
    {
      "mask": 15,
      "type": "global"
    },
    {
      "mask": 15,
      "type": "global",
      "account": "Administrators"
    }
  ],
  "constraints": [
    {
      "type": "unique",
      "description": "Alternate name must be unique across different records",
      "fields": [
        "alternateName"
      ]
    },
    {
      "type": "unique",
      "description": "Name must be unique across different records",
      "fields": [
        "name"
      ]
    }
  ],
  "seed": [
    {
      "alternateName": "notRegistered",
      "name": "Χωρίς δήλωση",
      "identifier": 0,
      "description": "Να μην έχει ξαναδηλωθεί ποτέ"
    },
    {
      "alternateName": "previousPeriodRegistered",
      "name": "Με δήλωση στην προηγούμενη περίοδο",
      "identifier": -2,
      "description": "Να έχει δηλωθεί στην προηγούμενη περίοδο"
    },
    {
      "alternateName": "previousPeriodNotRegistered",
      "name": "Χωρίς δήλωση στην προηγούμενη περίοδο",
      "identifier": 2,
      "description": "Να μην έχει δηλωθεί στην προηγούμενη περίοδο"
    },
    {
      "alternateName": "registered",
      "name": "Με δήλωση σε οποιαδήποτε περίοδο",
      "identifier": -1,
      "description": "Να έχει ξαναδηλωθεί σε οποιαδήποτε περίοδο"
    }
  ],
  "eventListeners": [
    {
      "name": "Lookup Cache Listener",
      "type": "./listeners/lookup-cache-listener.js"
    }
  ]
}
