{
  "$schema": "https://themost-framework.github.io/themost/models/2018/2/schema.json",
  "@id": "https://universis.io/entities/OrganizationUnit",
  "name": "ServiceProvider",
  "title": "ServiceProvider",
  "implements": "Thing",
  "version": "1.0",
  "classPath": "./models/service-provider-model",
  "fields": [
    {
      "@id": "https://themost.io/schemas/id",
      "name": "id",
      "title": "ID",
      "description": "The identifier of the item.",
      "type": "Counter",
      "primary": true,
      "nullable": false
    },
    {
      "name": "authorization",
      "title": "Service authorization type",
      "description": "The authorization type of service",
      "type": "ServiceAuthorization"
    },
    {
      "name": "authenticator",
      "title": "Authenticator",
      "description": "The authenticator of provider",
      "type": "Text",
      "size": 255
    }
  ],
  "privileges": [
    {
      "mask": 15,
      "type": "global"
    },
    {
      "mask": 15,
      "type": "global",
      "account": "Administrators"
    },
    {
      "mask": 1,
      "type": "global",
      "account": "*"
    }
  ],
  "seed": [
    {
      "authenticator": "universis_api_client",
      "alternateName": "universis",
      "name": "Universis api server",
      "url": "https://universis.io/api/",
      "authorization": {
        "alternateName": "bearer"
      }
    },
    {
      "authenticator": "hahe",
      "alternateName": "hahe",
      "name": "Harvest api server",
      "url": "https://api.ethaae.gr/harvest/1.0.0/api/",
      "authorization": {
        "alternateName": "apikey"
      }
    }
  ]
}
