{
    "$schema": "https://themost-framework.github.io/themost/models/2018/2/schema.json",
    "@id": "https://universis.io/schemas/SpecializationCourse",
    "name": "SpecializationCourse",
    "title": "SpecializationCourses",
    "sealed": false,
    "version": "1.0",
    "fields": [
        {
            "name": "id",
            "@id": "https://themost.io/schemas/id",
            "title": "ID",
            "description": "The identifier of an item.",
            "type": "Guid",
            "nullable": false,
            "primary": true,
            "value": "javascript:return this.newGuid();"
        },
        {
            "name": "studyProgramCourse",
            "@id": "https://universis.io/schemas/studyProgramCourse",
            "title": "Study Program Course",
            "description": "A course defined as part of a program of study.",
            "type": "StudyProgramCourse",
            "editable": false,
            "nullable": false
        },
        {
            "name": "specialization",
            "@id": "https://universis.io/schemas/specialization",
            "title": "Specialization",
            "description": "A specialization is a focused area of study attached to a specific major.",
            "type": "StudyProgramSpecialty",
            "editable": false,
            "readonly": true,
            "nullable": false
        },
        {
            "name": "specializationIndex",
            "@id": "https://universis.io/schemas/specializationIndex",
            "title": "Specialization Index",
            "description": "A number which represents an index of a specialization.",
            "type": "Integer",
            "editable": false,
            "readonly": true,
            "nullable": false,
            "calculation": "javascript:return this.model.context.model('StudyProgramSpecialty').where('id').equal(this.target.specialization).select('specialty').value();"
        },
        {
            "name": "semester",
            "@id": "https://universis.io/schemas/semester",
            "title": "Semester",
            "description": "One of the period of a study program",
            "type": "Semester",
            "nullable": false
        },
        {
            "name": "coefficient",
            "@id": "https://universis.io/schemas/coefficient",
            "title": "Coefficient",
            "description": "A number which presents the coefficient of a course that is going to be used to calculate the final degree mark.",
            "type": "Number",
            "nullable": false
        },
        {
            "name": "units",
            "@id": "https://universis.io/schemas/units",
            "title": "Units",
            "description": "The number of units of a course that is going to be used to validate if a student is eligible for graduation.",
            "type": "Number",
            "nullable": false
        },
        {
            "name": "ects",
            "@id": "https://universis.io/schemas/ects",
            "title": "ECTS",
            "description": "ECTS credits of a course based on European Credit Transfer and Accumulation System standard.",
            "type": "Number",
            "nullable": false
        },
        {
            "name": "courseType",
            "@id": "https://universis.io/schemas/courseType",
            "title": "Course Type",
            "description": "A course type e.g. mandatory, optional etc which may be used to check if a student meets the requirements for graduation.",
            "type": "CourseType",
            "nullable": false
        },
        {
            "name": "sortIndex",
            "@id": "https://universis.io/schemas/sortIndex",
            "title": "Sort Index",
            "description": "A number which defines an optional sort order of a collection of items.",
            "type": "Integer"
        },
        {
            "@id": "https://themost.io/schemas/dateModified",
            "name": "dateModified",
            "title": "Date Modified",
            "description": "The date on which this item was most recently modified.",
            "type": "DateTime",
            "readonly": true,
            "value": "javascript:return (new Date());",
            "calculation": "javascript:return (new Date());"
        }
    ],
    "constraints": [
        {
            "type": "unique",
            "fields": [
                "studyProgramCourse",
                "specialization"
            ]
        }
    ],
    "eventListeners": [
        {
            "type": "@themost/data/previous-state-listener"
        },
        {
            "type": "./listeners/auto-add-study-program-course-listener"
        }
    ],
    "privileges": [
        {
            "mask": 1,
            "type": "global",
            "account": "*"
        },
        {
            "mask": 15,
            "type": "global"
        },
        {
            "mask": 15,
            "type": "global",
            "account": "Administrators"
        },
        {
            "mask": 15,
            "type": "self",
            "account": "Registrar",
            "filter": "specialization/studyProgram/department eq departments()"
        }
    ]
}
