{
  "$schema": "https://themost-framework.github.io/themost/models/2018/2/schema.json",
  "@id": "https://universis.io/schemas/StudentThesisResult",
  "name": "StudentThesisResult",
  "title": "Βαθμολογίες εργασίας φοιτητή",
  "hidden": false,
  "sealed": true,
  "version": "0.3",
  "source": "StudentThesisResultBase",
  "view": "StudentThesisResultData",
  "fields": [
    {
      "name": "id",
      "title": "Κωδικός",
      "description": "Ο μοναδικός κωδικός του αντικειμένου",
      "type": "Guid",
      "nullable": false,
      "primary": true,
      "value":"javascript:return this.newGuid();"
    },
    {
      "name": "thesis",
      "title": "Εργασία",
      "description": "Η εργασία",
      "type": "Thesis",
      "nullable": false,
      "editable": false
    },
    {
      "name": "student",
      "title": "Φοιτητής",
      "description": "Ο φοιτητής",
      "type": "Student",
      "nullable": false,
      "editable": false
    },
    {
      "name": "studentThesis",
      "title": "Εργασία φοιτητή",
      "description": "Η εργασία του φοιτητή",
      "type": "StudentThesis",
      "nullable": true,
      "editable": false,
      "readonly": true
    },
    {
      "name": "instructor",
      "title": "Εξεταστής",
      "description": "Εξεταστής",
      "type": "Instructor",
      "nullable": false,
      "editable": false
    },
    {
      "name": "index",
      "title": "α/α",
      "description": "Αύξων αριθμός",
      "type": "Number",
      "readonly": true
    },
    {
      "name": "grade",
      "title": "Βαθμός",
      "description": "Βαθμός (0-1)",
      "type": "Number",
      "size": 4
    },
    {
      "name": "factor",
      "title": "Συντελεστής συμμετοχής",
      "description": "Ο συντελεστής που συμμετέχει στον τελικό βαθμό της εργασίας.",
      "type": "Number",
      "nullable": true,
      "readonly": true
    },
    {
      "name": "isPassed",
      "title": "Προβιβάσιμος",
      "description": "Ο βαθμός της εργασίας έχει περαστεί.",
      "type": "Number",
      "readonly": true
    },
    {
      "name": "formattedGrade",
      "title": "Βαθμός (στην κλίμακα)",
      "description": "Βαθμός (ανηγμένος στην κλίμακα βαθμολογίας της εργασίας).",
      "type": "Text",
      "readonly": true
    },
    {
      "name": "dateModified",
      "title": "Ημερομηνία τροποποίησης",
      "description": "Ημερομηνία τροποποίησης",
      "type": "DateTime",
      "nullable": false,
      "value": "javascript:return this.now();",
      "calculation": "javascript:return this.now();"
    }
  ],
  "eventListeners": [
    {
      "type": "@themost/data/previous-state-listener"
    },
    {
      "type": "./listeners/student-thesis-result-listener"
    }
  ],
  "constraints": [
    {
      "fields": [
        "thesis",
        "student",
        "instructor"
      ],
      "type": "unique"
    }
  ],
  "privileges": [
    {
      "mask": 15,
      "type": "global",
      "account": "Administrators"
    },
    {
      "mask": 15,
      "type": "global"
    },
    {
      "mask": 1,
      "type": "self",
      "filter": "student eq student()",
      "account": "Students"
    },
    {
      "mask": 1,
      "type": "self",
      "filter": "thesis/instructor eq instructor()",
      "account": "Instructors"
    },
    {
      "mask": 15,
      "type": "self",
      "account": "Registrar",
      "filter": "student/department eq departments()"
    }
  ]
}
