{
  "$schema": "https://themost-framework.github.io/themost/models/2018/2/schema.json",
  "@id": "https://universis.io/schemas/StudentGrade",
  "name": "StudentGrade",
  "title": "StudentGrades",
  "hidden": false,
  "sealed": true,
  "version": "0.2",
  "classPath": "./models/student-grade-model",
  "source": "StudentGradeBase",
  "view": "StudentGradeData",
  "fields": [
    {
      "name": "id",
      "title": "Id",
      "description": "Id",
      "type": "Text",
      "nullable": false,
      "size": 57,
      "primary": true
    },
    {
      "name": "courseExam",
      "title": "Course Exam",
      "description": "Course Exam",
      "type": "CourseExam",
      "nullable": false,
      "editable": false
    },
    {
      "name": "student",
      "title": "Student",
      "description": "Student",
      "type": "Student",
      "nullable": false,
      "editable": false
    },
    {
      "name": "courseClass",
      "title": "Course Class",
      "description": "Class",
      "type": "CourseClass",
      "nullable": false
    },
    {
      "name": "grade1",
      "title": "grade1",
      "description": "grade1",
      "type": "Number",
      "nullable": true,
      "size": 4
    },
    {
      "name": "status",
      "title": "status",
      "description": "Grade status",
      "type": "GradeStatus",
      "nullable": false,
      "mapping": {
        "parentModel": "GradeStatus",
        "childModel": "StudentGrade",
        "parentField": "identifier",
        "childField": "status",
        "associationType": "association"
      }
    },
    {
      "name": "grade2",
      "title": "grade2",
      "description": "grade2",
      "type": "Number",
      "nullable": true,
      "size": 4
    },
    {
      "name": "gradeModified",
      "title": "gradeModified",
      "description": "gradeModified",
      "type": "DateTime",
      "value": "javascript:return new Date();",
      "calculation": "javascript:return this.now();"
    },
    {
      "name": "examGrade",
      "title": "examGrade",
      "description": "examGrade",
      "type": "Number",
      "nullable": true,
      "size": 4
    },
    {
      "name": "percentileRank",
      "title": "percentileRank",
      "description": "percentileRank",
      "type": "Number",
      "nullable": true,
      "size": 4
    },
    {
      "name": "dateModified",
      "title": "dateModified",
      "description": "dateModified",
      "type": "DateTime",
      "nullable": false,
      "value": "javascript:return new Date();",
      "calculation": "javascript:return this.now();"
    },
    {
      "name": "formattedGrade",
      "title": "Βαθμός (στην κλίμακα)",
      "description": "Βαθμός (στην κλίμακα)",
      "type": "Text",
      "readonly": true
    },
    {
      "name": "course",
      "title": "Course",
      "description": "Course",
      "type": "Course",
      "readonly": true
    },
    {
      "name": "isPassed",
      "title": "Passed course",
      "description": "Το μάθημα έχει περαστεί",
      "type": "Number",
      "readonly": true
    },
    {
      "name": "remark",
      "type": "StudentGradeRemarkAction",
      "many": true,
      "multiplicity": "ZeroOrOne",
      "mapping": {
        "parentModel": "StudentGrade",
        "childModel": "StudentGradeRemarkAction",
        "parentField": "id",
        "childField": "studentGrade",
        "cascade": "delete",
        "associationType": "association"
      }
    }
  ],
  "views": [
    {
      "name": "my",
      "filter": "student eq student()"
    }
  ],
  "privileges": [
    {
      "mask": 15,
      "type": "global"
    },
    {
      "mask": 1,
      "type": "self",
      "filter": "student eq student()",
      "account": "Students"
    },
    {
      "mask": 1,
      "type": "self",
      "filter": "courseExam/instructors/instructor eq instructor()",
      "account": "Instructors"
    },
    {
      "mask": 15,
      "type": "global",
      "account": "Administrators"
    },
    {
      "mask": 15,
      "type": "self",
      "account": "Registrar",
      "filter": "student/department eq departments() or courseExam/course/department eq departments()"
    }
  ],
  "eventListeners": [
    {
      "type": "@themost/data/previous-state-listener"
    },
    {
      "type": "./listeners/student-grade-listener"
    }
  ],
  "constraints": [
    {
      "type": "unique",
      "description": "A student grade must be unique for a course exam period.",
      "fields": [
        "student",
        "courseExam"
      ]
    }
  ]
}
