{
    "$schema": "https://themost-framework.github.io/themost/models/2018/2/schema.json",
    "@id": "https://themost.io/schemas/StudentRequestActionAttachments",
    "name": "StudentRequestActionAttachments",
    "title": "Request Action Attachments",
    "@id": "https/themost.io/schemas/StudentRequestActionAttachments",
    "source": "ActionAttachments",
    "view": "ActionAttachments",
    "version": "1.0",
    "hidden": true,
    "fields": [
        {
            "name": "id",
            "type": "Counter",
            "primary": true
        },
        {
            "name": "object",
            "indexed": true,
            "nullable": false,
            "type": "StudentRequestAction"
        },
        {
            "name": "value",
            "indexed": true,
            "nullable": false,
            "type": "Attachment"
        }
    ],
    "constraints": [
        {
            "type": "unique",
            "fields": [
                "object",
                "value"
            ]
        }
    ],
    "eventListeners": [
        {
            "type": "./listeners/request-attachment-event-listener"
        }
    ],
    "privileges": [
        {
            "mask": 15,
            "type": "global",
            "account": "Administrators"
        },
        {
            "mask": 15,
            "type": "global",
            "account": "Registrar",
            "filter": "object/student/department eq departments()"
        },
        {
            "mask": 1,
            "type": "self",
            "filter": "object/owner eq me()",
            "account": "Students"
        },
        {
            "mask": 14,
            "type": "self",
            "account": "Students",
            "filter": "object/owner eq me() and object/actionStatus/alternateName eq 'PotentialActionStatus'"
        }
    ]
}
