{
    "name": "UserCredential", "id": 95, "title": "User Credential", "hidden": true, "sealed": false, "abstract": false, "version": "1.1",
    "fields": [
    {
        "name": "id",
        "title": "Id",
        "description":"The identifier of the item.",
        "type": "User",
        "nullable": false,
        "primary": true
    },
    {
        "name": "userPassword",
        "title": "Password",
        "description": "The user password.",
        "type": "Text",
        "nullable": false,
        "size": 255,
        "value": "javascript:return this.password(6);"
    },
    {
        "name": "badPasswordTime",
        "title": "Bad Password Time",
        "description": "The last time and date that an attempt to log on to this account was made with a password that is not valid.",
        "type": "DateTime",
        "readonly": true
    },
    {
        "name": "badPasswordCount",
        "title": "Bad Password Count",
        "description": "The number of times the user tried to log on to the account using an incorrect password.",
        "type": "Integer",
        "value": "javascript:return 0;",
        "readonly": true
    }
],"constraints": [
    {
        "type": "unique",
        "description": "User credentials must be unique for a specific user account.",
        "fields": [ "id" ]
    }
]
}
